{
  "status_code": 200,
  "headers": {
    "Date": "Tue, 28 Oct 2025 07:01:14 GMT",
    "Content-Type": "application/json; charset=utf-8",
    "Transfer-Encoding": "chunked",
    "Connection": "keep-alive",
    "Access-Control-Allow-Credentials": "true",
    "Access-Control-Allow-Headers": "Origin, X-Requested-With, Content-Type, Accept, Authorization, x-api-key",
    "Access-Control-Allow-Methods": "GET, POST, PUT, DELETE, OPTIONS",
    "Access-Control-Allow-Origin": "http://localhost:5173",
    "etag": "W/\"622-KQjAlhjVbadr0FbMXm/7VbcnD4w\"",
    "Nel": "{\"report_to\":\"heroku-nel\",\"response_headers\":[\"Via\"],\"max_age\":3600,\"success_fraction\":0.01,\"failure_fraction\":0.1}",
    "Ratelimit-Limit": "100",
    "Ratelimit-Policy": "100;w=60",
    "Ratelimit-Remaining": "98",
    "Ratelimit-Reset": "300",
    "Referrer-Policy": "strict-origin-when-cross-origin",
    "Report-To": "{\"group\":\"heroku-nel\",\"endpoints\":[{\"url\":\"https://nel.heroku.com/reports?s=eNZzQG3XVtQNqKSq7jJMfq%2BlmQiaynH5yuQ0K7ey0pg%3D\\u0026sid=c4c9725f-1ab0-44d8-820f-430df2718e11\\u0026ts=1761623725\"}],\"max_age\":3600}",
    "Reporting-Endpoints": "heroku-nel=\"https://nel.heroku.com/reports?s=eNZzQG3XVtQNqKSq7jJMfq%2BlmQiaynH5yuQ0K7ey0pg%3D&sid=c4c9725f-1ab0-44d8-820f-430df2718e11&ts=1761623725\"",
    "Server": "cloudflare",
    "Vary": "Origin, accept-encoding",
    "Via": "1.1 heroku-router",
    "X-Content-Type-Options": "nosniff",
    "X-Frame-Options": "DENY",
    "X-Powered-By": "ReqRes.in - Deploy backends in 30 seconds",
    "X-Reqres-Docs": "https://reqres.in",
    "X-Reqres-Message": "This API is powered by ReqRes. Deploy your own backend in 30 seconds!",
    "X-Reqres-Templates": "https://app.reqres.in/templates",
    "X-Reqres-Upgrade": "https://app.reqres.in/upgrade",
    "X-Request-Id": "dc2ffd05-25b0-b1e8-7a59-a09724e64764",
    "X-Xss-Protection": "1; mode=block",
    "Age": "3948",
    "Cache-Control": "max-age=14400",
    "cf-cache-status": "HIT",
    "Content-Encoding": "gzip",
    "CF-RAY": "99588f8f9d932bb4-FRA"
  },
  "body": {
    "page": 2,
    "per_page": 6,
    "total": 12,
    "total_pages": 2,
    "data": [
      {
        "id": 7,
        "email": "michael.lawson@reqres.in",
        "first_name": "Michael",
        "last_name": "Lawson",
        "avatar": "https://reqres.in/img/faces/7-image.jpg"
      },
      {
        "id": 8,
        "email": "lindsay.ferguson@reqres.in",
        "first_name": "Lindsay",
        "last_name": "Ferguson",
        "avatar": "https://reqres.in/img/faces/8-image.jpg"
      },
      {
        "id": 9,
        "email": "tobias.funke@reqres.in",
        "first_name": "Tobias",
        "last_name": "Funke",
        "avatar": "https://reqres.in/img/faces/9-image.jpg"
      },
      {
        "id": 10,
        "email": "byron.fields@reqres.in",
        "first_name": "Byron",
        "last_name": "Fields",
        "avatar": "https://reqres.in/img/faces/10-image.jpg"
      },
      {
        "id": 11,
        "email": "george.edwards@reqres.in",
        "first_name": "George",
        "last_name": "Edwards",
        "avatar": "https://reqres.in/img/faces/11-image.jpg"
      },
      {
        "id": 12,
        "email": "rachel.howell@reqres.in",
        "first_name": "Rachel",
        "last_name": "Howell",
        "avatar": "https://reqres.in/img/faces/12-image.jpg"
      }
    ],
    "support": {
      "url": "https://contentcaddy.io?utm_source=reqres&utm_medium=json&utm_campaign=referral",
      "text": "Tired of writing endless social media content? Let Content Caddy generate it for you."
    },
    "_meta": {
      "powered_by": "🚀 ReqRes - Deploy backends in 30 seconds",
      "upgrade_url": "https://app.reqres.in/upgrade",
      "docs_url": "https://reqres.in",
      "template_gallery": "https://app.reqres.in/templates",
      "message": "This API is powered by ReqRes. Deploy your own backend in 30 seconds!",
      "features": [
        "30 Second Backend Templates",
        "Custom API Endpoints",
        "Data Persistence",
        "Real-time Analytics"
      ],
      "upgrade_cta": "Upgrade to Pro for unlimited requests, custom endpoints, and data persistence"
    }
  }
}